{
    "development": {
        "database": "Todo",
        "host": "localhost",
        "dbport": "27017",
        "port": 5000
    },
    "stagging": {
        "database": "Todo",
        "host": "",
        "dbport": "",
        "port": 5000
    },
    "production": {
        "database": "Todo",
        "host": "",
        "dbport": "",
        "port": 5000
    }
}